The tree after the initial insertions is: 
cse.nd.edu, Notre Dame CSE
espn.com, ESPN
facebook.com, Facebook
gayle.com, Cracking the Coding Interview
google.com, Google
ieee.org, IEEE Official Website
indeed.com/q-Computer-Science-Intern-jobs.html, CS Internships
sites.nd.edu/mmorrison, Dr. Morrison's page
twitter.com, Twitter
und.com, Notre Dame Athletics

Finding and deleting the root
The root of the AVL Tree is: indeed.com/q-Computer-Science-Intern-jobs.html, CS Internships

The tree after deleting the root node is: 
cse.nd.edu, Notre Dame CSE
espn.com, ESPN
facebook.com, Facebook
gayle.com, Cracking the Coding Interview
google.com, Google
ieee.org, IEEE Official Website
sites.nd.edu/mmorrison, Dr. Morrison's page
twitter.com, Twitter
und.com, Notre Dame Athletics
